# created on Fri Mar  3 15:27:52 2023 from TQSampleFolder 'samples' with TQLibrary UNKNOWN compiled with GCC 8.3.0 against ROOT 6.18/04
                     |                  W+γ                  Z+γ               W+jets               Z+jets                   tt other fake lepton bk
----------------------------------------------------------------------------------------------------------------------------------------------
               SS DF |     6746.99 ± 125.37      1766.01 ± 57.34     7053.64 ± 271.74       495.52 ± 22.64        350.87 ± 7.08        115.32 ± 3.74
               SS ee |                 0.00                 0.00                 0.00                 0.00                 0.00                 0.00
               SS μμ |                 0.00                 0.00                 0.00                 0.00                 0.00                 0.00
