"","Data","ZH","WH","otherHiggs","ssWWQCD","ssWWEW","ssWWINT","qqWZgt0j","ZZ","WWW","Other VVV","ttV","tZ","mFake(dd)","eFake(dd)","e-QFlip(dd)"
"CutVR1BJEMME_DPhill","1","3.43 +/- 0.08","24.31 +/- 0.54","51.19 +/- 0.75","40.59 +/- 2.70","49.01 +/- 0.83","4.28 +/- 0.09","770.39 +/- 33.86","114.00 +/- 4.06","35.32 +/- 2.08","1.52 +/- 0.04","234.74 +/- 2.18","26.78 +/- 0.16","452.26 +/- 43.28","382.84 +/- 19.04","261.17 +/- 8.77"
"CutVR1BJEMME_DRll","1","3.43 +/- 0.10","24.31 +/- 0.54","51.18 +/- 0.81","40.31 +/- 2.50","48.96 +/- 0.84","4.27 +/- 0.10","769.86 +/- 34.30","113.95 +/- 4.54","35.23 +/- 2.26","1.52 +/- 0.05","234.61 +/- 2.38","26.75 +/- 0.20","451.62 +/- 42.47","382.38 +/- 19.45","260.76 +/- 8.29"
"CutVR1BJEMME_MET","1","3.43 +/- 0.22","24.26 +/- 0.57","50.70 +/- 1.22","39.50 +/- 2.70","47.46 +/- 0.87","4.08 +/- 0.12","765.90 +/- 49.73","113.95 +/- 7.53","34.45 +/- 2.16","1.47 +/- 0.07","231.29 +/- 3.23","26.68 +/- 0.34","451.65 +/- 52.80","382.17 +/- 25.33","260.35 +/- 8.11"
"CutVR1BJEMME_Mjj","1","3.42 +/- 0.25","24.25 +/- 0.94","50.71 +/- 1.59","39.29 +/- 2.30","41.01 +/- 1.05","3.57 +/- 0.15","762.00 +/- 45.11","113.59 +/- 8.63","34.63 +/- 1.89","1.50 +/- 0.12","232.93 +/- 2.67","25.88 +/- 0.31","449.94 +/- 52.53","379.42 +/- 39.16","258.72 +/- 9.55"
"CutVR1BJEMME_Mll","1","3.20 +/- 0.11","22.27 +/- 0.44","46.32 +/- 0.62","25.34 +/- 1.59","36.30 +/- 0.56","3.08 +/- 0.06","652.57 +/- 27.82","106.04 +/- 4.05","25.05 +/- 1.85","1.13 +/- 0.05","185.67 +/- 1.66","22.08 +/- 0.13","430.09 +/- 48.50","360.50 +/- 20.71","150.42 +/- 4.22"
"CutVR1BJEMME_RNN","1","3.43 +/- 0.20","24.31 +/- 0.65","51.19 +/- 1.17","40.59 +/- 6.68","49.01 +/- 2.37","4.29 +/- 0.25","770.39 +/- 68.83","114.00 +/- 7.46","35.32 +/- 3.33","1.52 +/- 0.08","234.74 +/- 4.13","26.78 +/- 0.46","452.26 +/- 73.31","382.84 +/- 32.52","261.17 +/- 12.16"
"CutVR1BJEMME_leadJetEta","1","3.43 +/- 0.10","24.31 +/- 0.72","51.19 +/- 1.07","40.59 +/- 4.18","49.01 +/- 1.15","4.28 +/- 0.15","770.39 +/- 49.78","114.00 +/- 5.71","35.32 +/- 2.88","1.52 +/- 0.06","234.74 +/- 3.34","26.78 +/- 0.24","452.26 +/- 64.55","382.84 +/- 28.07","261.17 +/- 10.95"
"CutVR1BJEMME_leadJetPt","1","3.41 +/- 0.25","23.97 +/- 0.70","48.69 +/- 1.27","33.88 +/- 1.98","41.32 +/- 0.95","2.39 +/- 0.14","740.49 +/- 41.85","112.89 +/- 7.61","31.96 +/- 2.00","1.40 +/- 0.10","220.69 +/- 3.97","25.77 +/- 0.46","446.49 +/- 44.65","377.20 +/- 21.00","254.17 +/- 7.12"
"CutVR1BJEMME_leadLepEta","1","3.43 +/- 0.11","24.31 +/- 0.62","51.19 +/- 0.97","40.59 +/- 3.41","49.01 +/- 1.12","4.28 +/- 0.13","770.39 +/- 44.02","114.00 +/- 5.25","35.32 +/- 2.51","1.52 +/- 0.06","234.74 +/- 3.12","26.78 +/- 0.23","452.26 +/- 57.82","382.84 +/- 24.41","261.17 +/- 9.53"
"CutVR1BJEMME_leadLepPt","1","3.43 +/- 0.12","24.21 +/- 0.60","50.92 +/- 0.88","39.51 +/- 2.72","47.36 +/- 0.83","4.15 +/- 0.10","762.14 +/- 37.53","113.36 +/- 5.78","34.52 +/- 2.16","1.46 +/- 0.05","229.99 +/- 2.54","26.59 +/- 0.23","451.71 +/- 59.78","381.34 +/- 27.84","258.83 +/- 7.69"
"CutVR1BJEMME_nJets","1","3.43 +/- 0.26","24.31 +/- 1.02","51.17 +/- 1.86","40.59 +/- 5.44","49.01 +/- 2.23","4.28 +/- 0.19","770.38 +/- 64.96","114.00 +/- 8.07","35.31 +/- 3.04","1.52 +/- 0.10","234.71 +/- 7.46","26.78 +/- 0.76","452.20 +/- 75.19","382.84 +/- 34.98","261.16 +/- 14.73"
"CutVR1BJEMME_subleadJetEta","1","3.43 +/- 0.15","24.31 +/- 1.02","51.19 +/- 1.47","40.59 +/- 4.18","49.01 +/- 1.20","4.28 +/- 0.14","770.39 +/- 54.82","114.00 +/- 8.62","35.32 +/- 2.91","1.52 +/- 0.08","234.74 +/- 3.29","26.78 +/- 0.21","452.26 +/- 71.39","382.84 +/- 39.10","261.17 +/- 11.64"
"CutVR1BJEMME_subleadJetPt","1","3.42 +/- 0.24","24.18 +/- 1.13","49.98 +/- 1.63","36.03 +/- 2.80","44.58 +/- 1.29","2.77 +/- 0.13","758.80 +/- 51.46","113.46 +/- 8.95","33.58 +/- 2.43","1.48 +/- 0.10","226.59 +/- 4.47","26.30 +/- 0.47","449.04 +/- 57.70","379.82 +/- 34.12","258.70 +/- 10.19"
"CutVR1BJEMME_subleadLepEta","1","3.43 +/- 0.12","24.31 +/- 0.62","51.19 +/- 0.97","40.59 +/- 3.37","49.01 +/- 1.10","4.28 +/- 0.12","770.39 +/- 43.30","114.00 +/- 5.16","35.32 +/- 2.50","1.52 +/- 0.06","234.74 +/- 3.06","26.78 +/- 0.23","452.26 +/- 54.32","382.84 +/- 24.53","261.17 +/- 9.79"
"CutVR1BJEMME_subleadLepPt","1","3.43 +/- 0.12","24.28 +/- 0.78","51.15 +/- 1.12","40.37 +/- 3.82","48.64 +/- 1.13","4.25 +/- 0.12","768.73 +/- 50.48","113.62 +/- 6.74","35.08 +/- 2.60","1.51 +/- 0.05","233.92 +/- 3.16","26.75 +/- 0.25","451.97 +/- 161.58","382.41 +/- 50.52","259.94 +/- 9.31"
