# created on Fri Mar  3 15:30:40 2023 from TQSampleFolder 'samples' with TQLibrary UNKNOWN compiled with GCC 8.3.0 against ROOT 6.18/04
                     |              γ conv.         light flavor         heavy flavor
----------------------------------------------------------------------------------
               SS DF |                 0.00                 0.00                 0.00
               SS ee |     7783.09 ± 190.68     2357.09 ± 114.82       450.59 ± 44.09
               SS μμ |                 0.00                 0.00                 0.00
