# created on Fri Mar  3 15:30:40 2023 from TQSampleFolder 'samples' with TQLibrary UNKNOWN compiled with GCC 8.3.0 against ROOT 6.18/04
                     |              γ conv.         light flavor         heavy flavor
----------------------------------------------------------------------------------
               SS DF |    11966.63 ± 247.06     3913.36 ± 171.79       648.36 ± 53.63
               SS ee |                 0.00                 0.00                 0.00
               SS μμ |                 0.00                 0.00                 0.00
