"","Data","ZH","WH","otherHiggs","ssWWQCD","ssWWEW","ssWWINT","qqWZgt0j","ZZ","WWW","Other VVV","ttV","tZ","mFake(dd)","eFake(dd)","e-QFlip(dd)"
"CutVR1BJEMME_DPhill","1","1.14 +/- 0.03","10.88 +/- 0.24","22.69 +/- 0.35","18.43 +/- 1.23","22.14 +/- 0.37","1.87 +/- 0.04","315.21 +/- 14.68","37.01 +/- 1.47","15.99 +/- 1.20","0.63 +/- 0.02","103.87 +/- 0.95","11.37 +/- 0.06","21.30 +/- 1.99","295.38 +/- 15.78","47.66 +/- 1.54"
"CutVR1BJEMME_DRll","1","1.14 +/- 0.06","10.88 +/- 0.25","22.68 +/- 0.41","18.31 +/- 1.13","22.12 +/- 0.39","1.86 +/- 0.05","314.93 +/- 15.11","36.98 +/- 1.79","15.96 +/- 1.69","0.63 +/- 0.03","103.78 +/- 1.12","11.36 +/- 0.10","21.27 +/- 1.89","295.13 +/- 16.12","47.61 +/- 1.46"
"CutVR1BJEMME_MET","1","1.14 +/- 0.15","10.86 +/- 0.26","22.46 +/- 0.73","17.97 +/- 1.24","21.44 +/- 0.42","1.78 +/- 0.08","313.23 +/- 18.74","36.99 +/- 3.41","15.64 +/- 1.46","0.60 +/- 0.05","102.39 +/- 0.92","11.32 +/- 0.25","21.20 +/- 2.19","294.95 +/- 21.16","47.52 +/- 1.35"
"CutVR1BJEMME_Mjj","1","1.13 +/- 0.12","10.86 +/- 0.43","22.45 +/- 0.84","17.87 +/- 1.04","18.49 +/- 0.54","1.56 +/- 0.11","311.80 +/- 19.59","36.87 +/- 3.36","15.70 +/- 1.25","0.62 +/- 0.07","103.04 +/- 1.78","11.00 +/- 0.21","21.18 +/- 2.11","292.59 +/- 33.72","47.28 +/- 1.66"
"CutVR1BJEMME_Mll","1","1.06 +/- 0.06","9.89 +/- 0.19","20.45 +/- 0.29","11.33 +/- 0.71","16.15 +/- 0.28","1.33 +/- 0.03","264.13 +/- 11.76","33.38 +/- 1.84","11.21 +/- 1.34","0.43 +/- 0.02","81.71 +/- 0.73","9.34 +/- 0.09","19.59 +/- 1.80","284.77 +/- 18.19","23.18 +/- 0.56"
"CutVR1BJEMME_RNN","1","1.14 +/- 0.08","10.88 +/- 0.29","22.69 +/- 0.69","18.43 +/- 3.10","22.14 +/- 1.06","1.87 +/- 0.11","315.21 +/- 31.27","37.01 +/- 3.41","15.99 +/- 2.04","0.63 +/- 0.05","103.87 +/- 2.17","11.37 +/- 0.20","21.30 +/- 3.27","295.38 +/- 25.93","47.66 +/- 2.15"
"CutVR1BJEMME_leadJetEta","1","1.14 +/- 0.05","10.88 +/- 0.32","22.69 +/- 0.50","18.43 +/- 1.90","22.14 +/- 0.52","1.87 +/- 0.06","315.21 +/- 21.57","37.01 +/- 2.08","15.99 +/- 1.92","0.63 +/- 0.02","103.87 +/- 1.52","11.37 +/- 0.08","21.30 +/- 2.89","295.38 +/- 23.31","47.66 +/- 1.76"
"CutVR1BJEMME_leadJetPt","1","1.12 +/- 0.14","10.74 +/- 0.32","21.63 +/- 0.75","15.49 +/- 0.93","18.67 +/- 0.49","1.02 +/- 0.10","302.15 +/- 15.24","36.42 +/- 4.98","14.45 +/- 1.18","0.56 +/- 0.06","97.99 +/- 2.38","10.92 +/- 0.26","20.71 +/- 1.90","291.67 +/- 18.19","46.43 +/- 1.21"
"CutVR1BJEMME_leadLepEta","1","1.14 +/- 0.05","10.88 +/- 0.27","22.69 +/- 0.46","18.43 +/- 1.53","22.14 +/- 0.50","1.87 +/- 0.06","315.21 +/- 18.75","37.01 +/- 2.10","15.99 +/- 1.68","0.63 +/- 0.03","103.87 +/- 1.39","11.37 +/- 0.11","21.30 +/- 2.48","295.38 +/- 20.33","47.66 +/- 1.66"
"CutVR1BJEMME_leadLepPt","1","1.14 +/- 0.06","10.83 +/- 0.27","22.57 +/- 0.44","17.96 +/- 1.25","21.35 +/- 0.38","1.80 +/- 0.05","311.78 +/- 16.64","36.63 +/- 2.21","15.65 +/- 1.52","0.59 +/- 0.03","101.91 +/- 1.19","11.29 +/- 0.10","21.26 +/- 2.71","294.93 +/- 23.98","46.83 +/- 1.12"
"CutVR1BJEMME_nJets","1","1.14 +/- 0.15","10.88 +/- 0.46","22.68 +/- 0.87","18.43 +/- 2.48","22.14 +/- 1.01","1.87 +/- 0.08","315.21 +/- 27.68","37.01 +/- 3.50","15.99 +/- 1.78","0.63 +/- 0.06","103.85 +/- 3.23","11.37 +/- 0.33","21.30 +/- 3.39","295.38 +/- 28.91","47.66 +/- 2.42"
"CutVR1BJEMME_subleadJetEta","1","1.14 +/- 0.08","10.88 +/- 0.43","22.69 +/- 0.69","18.43 +/- 1.90","22.14 +/- 0.53","1.87 +/- 0.07","315.21 +/- 23.76","37.01 +/- 3.22","15.99 +/- 1.96","0.63 +/- 0.02","103.87 +/- 1.41","11.37 +/- 0.08","21.30 +/- 2.96","295.38 +/- 33.28","47.66 +/- 1.97"
"CutVR1BJEMME_subleadJetPt","1","1.13 +/- 0.13","10.83 +/- 0.51","22.16 +/- 0.84","16.42 +/- 1.31","20.14 +/- 0.67","1.18 +/- 0.08","310.13 +/- 22.57","36.80 +/- 3.10","15.26 +/- 1.78","0.61 +/- 0.06","100.38 +/- 2.58","11.15 +/- 0.25","21.04 +/- 2.42","293.30 +/- 29.14","47.31 +/- 1.71"
"CutVR1BJEMME_subleadLepEta","1","1.14 +/- 0.06","10.88 +/- 0.28","22.69 +/- 0.49","18.43 +/- 1.55","22.14 +/- 0.51","1.87 +/- 0.06","315.21 +/- 19.42","37.01 +/- 2.05","15.99 +/- 1.76","0.63 +/- 0.03","103.87 +/- 1.47","11.37 +/- 0.11","21.30 +/- 2.52","295.38 +/- 20.44","47.66 +/- 1.57"
"CutVR1BJEMME_subleadLepPt","1","1.14 +/- 0.05","10.87 +/- 0.34","22.67 +/- 0.54","18.32 +/- 1.73","21.95 +/- 0.50","1.85 +/- 0.05","314.40 +/- 21.43","36.67 +/- 2.10","15.90 +/- 1.69","0.61 +/- 0.03","103.52 +/- 1.37","11.35 +/- 0.10","21.29 +/- 3.61","295.17 +/- 47.30","47.02 +/- 1.31"
