# created on Thu Mar  2 22:44:12 2023 from TQSampleFolder 'samples' with TQLibrary UNKNOWN compiled with GCC 8.3.0 against ROOT 6.18/04
                     |              γ conv.         light flavor         heavy flavor
----------------------------------------------------------------------------------
Zdominated antiid mu |       550.64 ± 31.54       104.09 ± 14.18         51.91 ± 2.47
Zdepleted antiid muo |         25.18 ± 5.66         11.26 ± 3.18         21.11 ± 1.10
