"","Data","ZH","WH","otherHiggs","ssWWQCD","ssWWEW","ssWWINT","qqWZgt0j","ZZ","WWW","Other VVV","ttV","tZ","mFake(dd)","eFake(dd)","e-QFlip(dd)"
"CutVR1BJEMME_DPhill","1","2.30 +/- 0.05","13.43 +/- 0.30","28.50 +/- 0.42","22.16 +/- 1.47","26.87 +/- 0.46","2.41 +/- 0.05","455.17 +/- 19.42","76.99 +/- 2.74","19.33 +/- 0.82","0.90 +/- 0.02","130.87 +/- 1.23","15.41 +/- 0.10","430.96 +/- 42.79","87.47 +/- 6.33","213.51 +/- 7.28"
"CutVR1BJEMME_DRll","1","2.30 +/- 0.07","13.43 +/- 0.30","28.50 +/- 0.46","22.00 +/- 1.38","26.83 +/- 0.47","2.41 +/- 0.06","454.92 +/- 20.02","76.97 +/- 3.28","19.27 +/- 0.88","0.90 +/- 0.04","130.83 +/- 1.46","15.40 +/- 0.13","430.35 +/- 41.80","87.25 +/- 6.48","213.15 +/- 6.89"
"CutVR1BJEMME_MET","1","2.29 +/- 0.19","13.39 +/- 0.33","28.25 +/- 0.84","21.54 +/- 1.48","26.02 +/- 0.51","2.30 +/- 0.08","452.67 +/- 39.00","76.96 +/- 7.51","18.82 +/- 1.44","0.87 +/- 0.06","128.89 +/- 2.38","15.36 +/- 0.24","430.46 +/- 51.86","87.22 +/- 8.04","212.82 +/- 6.80"
"CutVR1BJEMME_Mjj","1","2.29 +/- 0.19","13.39 +/- 0.53","28.25 +/- 0.95","21.42 +/- 1.26","22.52 +/- 0.60","2.02 +/- 0.08","450.20 +/- 28.10","76.74 +/- 6.62","18.93 +/- 1.10","0.89 +/- 0.09","129.88 +/- 2.07","14.88 +/- 0.23","428.76 +/- 51.98","87.20 +/- 11.40","211.44 +/- 7.92"
"CutVR1BJEMME_Mll","1","2.14 +/- 0.08","12.38 +/- 0.25","25.86 +/- 0.38","14.01 +/- 0.88","20.15 +/- 0.32","1.76 +/- 0.05","388.44 +/- 16.42","72.66 +/- 2.80","13.84 +/- 0.64","0.69 +/- 0.04","103.97 +/- 0.94","12.74 +/- 0.08","410.50 +/- 47.99","75.73 +/- 5.55","127.25 +/- 3.71"
"CutVR1BJEMME_RNN","1","2.30 +/- 0.18","13.43 +/- 0.36","28.50 +/- 0.76","22.16 +/- 3.59","26.87 +/- 1.27","2.41 +/- 0.15","455.17 +/- 38.95","76.99 +/- 4.91","19.33 +/- 1.70","0.90 +/- 0.05","130.87 +/- 2.31","15.41 +/- 0.28","430.96 +/- 72.15","87.47 +/- 12.00","213.51 +/- 10.64"
"CutVR1BJEMME_leadJetEta","1","2.30 +/- 0.07","13.43 +/- 0.40","28.50 +/- 0.60","22.16 +/- 2.28","26.87 +/- 0.63","2.41 +/- 0.09","455.17 +/- 28.47","76.99 +/- 3.87","19.33 +/- 1.36","0.90 +/- 0.04","130.87 +/- 1.89","15.41 +/- 0.15","430.96 +/- 63.54","87.47 +/- 8.92","213.51 +/- 9.25"
"CutVR1BJEMME_leadJetPt","1","2.29 +/- 0.18","13.24 +/- 0.40","27.07 +/- 0.82","18.39 +/- 1.10","22.65 +/- 0.62","1.37 +/- 0.09","438.35 +/- 32.77","76.48 +/- 5.31","17.51 +/- 1.34","0.84 +/- 0.08","122.70 +/- 2.74","14.85 +/- 0.33","425.78 +/- 43.99","85.53 +/- 6.23","207.74 +/- 5.95"
"CutVR1BJEMME_leadLepEta","1","2.30 +/- 0.08","13.43 +/- 0.36","28.50 +/- 0.58","22.16 +/- 1.89","26.87 +/- 0.64","2.41 +/- 0.07","455.17 +/- 26.14","76.99 +/- 3.77","19.33 +/- 1.15","0.90 +/- 0.04","130.87 +/- 1.86","15.41 +/- 0.15","430.96 +/- 56.97","87.47 +/- 8.40","213.51 +/- 8.08"
"CutVR1BJEMME_leadLepPt","1","2.29 +/- 0.08","13.38 +/- 0.34","28.35 +/- 0.53","21.55 +/- 1.48","26.01 +/- 0.48","2.35 +/- 0.06","450.35 +/- 21.74","76.72 +/- 4.19","18.87 +/- 0.91","0.87 +/- 0.04","128.08 +/- 1.61","15.30 +/- 0.16","430.45 +/- 58.97","86.46 +/- 8.30","212.00 +/- 6.69"
"CutVR1BJEMME_nJets","1","2.30 +/- 0.18","13.43 +/- 0.58","28.49 +/- 1.10","22.16 +/- 2.97","26.87 +/- 1.27","2.41 +/- 0.11","455.17 +/- 38.79","76.99 +/- 5.62","19.33 +/- 1.40","0.90 +/- 0.07","130.86 +/- 4.43","15.41 +/- 0.46","430.90 +/- 73.93","87.47 +/- 11.29","213.50 +/- 12.38"
"CutVR1BJEMME_subleadJetEta","1","2.30 +/- 0.10","13.43 +/- 0.57","28.50 +/- 0.81","22.16 +/- 2.28","26.87 +/- 0.66","2.41 +/- 0.08","455.17 +/- 31.88","76.99 +/- 5.81","19.33 +/- 1.32","0.90 +/- 0.05","130.87 +/- 1.83","15.41 +/- 0.13","430.96 +/- 70.46","87.72 +/- 11.36","213.51 +/- 9.72"
"CutVR1BJEMME_subleadJetPt","1","2.29 +/- 0.19","13.35 +/- 0.63","27.82 +/- 0.99","19.61 +/- 1.54","24.44 +/- 0.74","1.59 +/- 0.09","448.67 +/- 31.06","76.67 +/- 6.74","18.33 +/- 1.36","0.87 +/- 0.07","126.21 +/- 2.92","15.15 +/- 0.36","428.00 +/- 56.88","86.53 +/- 9.84","211.39 +/- 8.53"
"CutVR1BJEMME_subleadLepEta","1","2.30 +/- 0.09","13.43 +/- 0.34","28.50 +/- 0.54","22.16 +/- 1.83","26.87 +/- 0.60","2.41 +/- 0.07","455.17 +/- 24.74","76.99 +/- 3.62","19.33 +/- 1.11","0.90 +/- 0.04","130.87 +/- 1.76","15.41 +/- 0.14","430.96 +/- 53.44","87.47 +/- 8.35","213.51 +/- 8.42"
"CutVR1BJEMME_subleadLepPt","1","2.30 +/- 0.10","13.42 +/- 0.45","28.49 +/- 0.64","22.05 +/- 2.10","26.69 +/- 0.64","2.40 +/- 0.07","454.33 +/- 29.19","76.96 +/- 5.15","19.18 +/- 1.18","0.89 +/- 0.03","130.41 +/- 1.81","15.39 +/- 0.16","430.68 +/- 160.83","87.25 +/- 10.55","212.92 +/- 8.24"
