"","Data","ZH","WH","otherHiggs","ssWWQCD","ssWWEW","ssWWINT","qqWZgt0j","ZZ","WWW","Other VVV","ttV","tZ","mFake(dd)","eFake(dd)","e-QFlip(dd)"
"CutVRBVeto0JMM_DPhill","1","2.10 +/- 0.06","36.06 +/- 0.91","7.52 +/- 0.22","5.30 +/- 0.50","7.53 +/- 0.36","0.27 +/- 0.01","1390.45 +/- 33.41","245.76 +/- 6.50","11.22 +/- 0.42","0.58 +/- 0.01","0.46 +/- 0.05","0.19 +/- 0.02","360.95 +/- 47.93","0.00","0.00"
"CutVRBVeto0JMM_DRll","1","2.10 +/- 0.08","36.06 +/- 0.91","7.52 +/- 0.34","5.18 +/- 0.46","7.52 +/- 0.37","0.26 +/- 0.03","1387.56 +/- 33.22","245.68 +/- 8.10","11.20 +/- 0.74","0.58 +/- 0.03","0.46 +/- 0.10","0.19 +/- 0.02","359.27 +/- 42.34","0.00","0.00"
"CutVRBVeto0JMM_MET","1","2.10 +/- 0.20","36.05 +/- 1.08","7.51 +/- 0.54","5.29 +/- 0.66","7.52 +/- 0.49","0.27 +/- 0.04","1390.18 +/- 40.13","245.75 +/- 12.76","11.21 +/- 0.54","0.57 +/- 0.05","0.47 +/- 0.13","0.19 +/- 0.04","360.84 +/- 63.51","0.00","0.00"
"CutVRBVeto0JMM_Mjj","1","2.10 +/- 0.19","36.06 +/- 3.16","7.52 +/- 0.66","5.30 +/- 1.92","7.53 +/- 1.29","0.27 +/- 0.05","1390.45 +/- 93.72","245.76 +/- 14.79","11.22 +/- 1.59","0.58 +/- 0.05","0.46 +/- 0.13","0.19 +/- 0.04","360.95 +/- 148.71","0.00","0.00"
"CutVRBVeto0JMM_Mll","1","2.03 +/- 0.09","34.30 +/- 0.81","7.03 +/- 0.37","3.82 +/- 0.35","6.73 +/- 0.33","0.23 +/- 0.03","1275.09 +/- 32.79","241.62 +/- 5.52","8.80 +/- 0.31","0.44 +/- 0.03","0.42 +/- 0.09","0.16 +/- 0.02","348.47 +/- 50.69","0.00","0.00"
"CutVRBVeto0JMM_RNN","1","2.10 +/- 0.18","36.06 +/- 1.50","7.52 +/- 0.50","5.30 +/- 0.85","7.53 +/- 0.58","0.27 +/- 0.04","1390.45 +/- 51.38","245.76 +/- 10.36","11.22 +/- 0.68","0.58 +/- 0.04","0.47 +/- 0.17","0.19 +/- 0.03","360.95 +/- 69.61","0.00","0.00"
"CutVRBVeto0JMM_leadJetEta","1","2.10 +/- 0.22","36.06 +/- 3.13","7.52 +/- 0.67","5.30 +/- 1.21","7.53 +/- 0.98","0.27 +/- 0.04","1390.45 +/- 102.95","245.76 +/- 20.19","11.22 +/- 1.36","0.58 +/- 0.06","0.46 +/- 0.13","0.19 +/- 0.04","360.95 +/- 123.79","0.00","0.00"
"CutVRBVeto0JMM_leadJetPt","1","2.10 +/- 0.22","36.06 +/- 3.07","7.52 +/- 0.73","5.30 +/- 1.38","7.53 +/- 1.00","0.27 +/- 0.05","1390.45 +/- 101.36","245.76 +/- 18.69","11.22 +/- 1.31","0.58 +/- 0.06","0.46 +/- 0.19","0.19 +/- 0.04","360.95 +/- 124.06","0.00","0.00"
"CutVRBVeto0JMM_leadLepEta","1","2.10 +/- 0.10","36.06 +/- 1.02","7.52 +/- 0.33","5.30 +/- 0.62","7.53 +/- 0.44","0.27 +/- 0.03","1390.45 +/- 38.46","245.76 +/- 7.58","11.22 +/- 0.77","0.58 +/- 0.03","0.46 +/- 0.09","0.19 +/- 0.02","360.95 +/- 47.65","0.00","0.00"
"CutVRBVeto0JMM_leadLepPt","1","2.10 +/- 0.10","36.03 +/- 1.17","7.51 +/- 0.36","5.29 +/- 0.75","7.51 +/- 0.49","0.27 +/- 0.03","1389.55 +/- 45.96","245.72 +/- 10.18","11.18 +/- 0.82","0.57 +/- 0.03","0.47 +/- 0.10","0.19 +/- 0.03","360.85 +/- 74.88","0.00","0.00"
"CutVRBVeto0JMM_nJets","1","2.10 +/- 0.19","36.06 +/- 3.16","7.52 +/- 0.66","5.30 +/- 1.92","7.53 +/- 1.29","0.27 +/- 0.05","1390.45 +/- 93.72","245.76 +/- 14.79","11.22 +/- 1.59","0.58 +/- 0.05","0.46 +/- 0.13","0.19 +/- 0.04","360.95 +/- 148.71","0.00","0.00"
"CutVRBVeto0JMM_subleadJetEta","1","2.10 +/- 0.21","36.06 +/- 3.30","7.52 +/- 0.75","5.30 +/- 1.79","7.53 +/- 1.28","0.27 +/- 0.05","1390.45 +/- 96.38","245.76 +/- 15.61","11.22 +/- 1.53","0.58 +/- 0.06","0.47 +/- 0.15","0.19 +/- 0.04","360.95 +/- 145.31","0.00","0.00"
"CutVRBVeto0JMM_subleadJetPt","1","2.10 +/- 0.22","36.06 +/- 3.30","7.52 +/- 0.69","5.30 +/- 1.76","7.53 +/- 1.27","0.27 +/- 0.06","1390.45 +/- 95.74","245.76 +/- 15.25","11.22 +/- 1.38","0.58 +/- 0.06","0.46 +/- 0.15","0.19 +/- 0.04","360.95 +/- 145.07","0.00","0.00"
"CutVRBVeto0JMM_subleadLepEta","1","2.10 +/- 0.09","36.06 +/- 1.02","7.52 +/- 0.32","5.30 +/- 0.62","7.53 +/- 0.43","0.27 +/- 0.03","1390.45 +/- 37.67","245.76 +/- 7.54","11.22 +/- 0.82","0.58 +/- 0.03","0.46 +/- 0.09","0.19 +/- 0.02","360.95 +/- 48.06","0.00","0.00"
"CutVRBVeto0JMM_subleadLepPt","1","2.10 +/- 0.11","36.03 +/- 1.42","7.52 +/- 0.41","5.29 +/- 0.89","7.52 +/- 0.60","0.27 +/- 0.04","1389.69 +/- 49.35","245.67 +/- 10.48","11.20 +/- 0.70","0.57 +/- 0.03","0.46 +/- 0.11","0.19 +/- 0.03","360.82 +/- 146.25","0.00","0.00"
